﻿{
    "WebApp": [
        {
            "Name": "flight",
            "IIS": "s-iis-b2bfun-01",
            "AccessControlList": [
                {
                    "Identity": "LIONMAIL\\svc-iis-ub2bfun",
                    "FileSystemRights": "ReadAndExecute",
                    "InheritanceFlags": "ContainerInherit, ObjectInherit",
                    "PropagationFlags": "None",
                    "AccessControlType": "Allow"
                },
                {
                    "Identity": "LIONMAIL\\iis-b2bfun部",
                    "FileSystemRights": "ReadAndExecute",
                    "InheritanceFlags": "ContainerInherit, ObjectInherit",
                    "PropagationFlags": "None",
                    "AccessControlType": "Allow"
                }
            ]
        }
    ],
    "APData": [
        {
            "Name": "flight",
            "IIS": "s-iis-b2bfun-01",
            "AccessControlList": [
                {
                    "Identity": "LIONMAIL\\svc-iis-ub2bfun",
                    "FileSystemRights": "Modify",
                    "InheritanceFlags": "ContainerInherit, ObjectInherit",
                    "PropagationFlags": "None",
                    "AccessControlType": "Allow"
                },
                {
                    "Identity": "LIONMAIL\\STATIC讀取組",
                    "FileSystemRights": "ReadAndExecute",
                    "InheritanceFlags": "ContainerInherit, ObjectInherit",
                    "PropagationFlags": "None",
                    "AccessControlType": "Allow"
                }
            ]
        }
    ]
}